Panel,Trait,Environments,Mean,H2,r2
Ames,DTS,11NC 11IA 11MO 11IN 11NE 12NE 12MO 12NC 11NY,66.3710143757488,0.783090212328875,0.949807326503557
Ames,PH,11NC 11IA 11MO 11IN 11NE 12NE 12MO 12NC 11NY,219.388821265406,0.69019228135019,0.920940824736927
Ames,GY,11NC 11IA 11MO 11NE 12NE 12MO 12NC,-0.0173709888976321,0.294269842953795,0.622206532636441
NAM,DTS,10MO 10IA 10W 11W 11NC 11IA 11NY,70.5598689061424,0.553635629411503,0.814982345950978
NAM,PH,10NC 10MO 10IA 10W 11W 11NC 11IA 11NY,246.97372823961,0.304455068658643,0.686229197936977
NAM,GY,10MO 10IA 10W 11NC 11IA,-0.199244304701304,0.158188034371679,0.348179686942508
