Trait,Chromosome,Position,AF_Ames/PHZ51_B47,AF_NAM/PHZ51,Effect_Ames/PHZ51_B47,Effect_NAM/PHZ51,p (FDR)_Ames/PHZ51_B47,p (FDR)_NAM/PHZ51,WPIP_Ames/PHZ51_B47,WPIP_NAM/PHZ51
DTS,1,5819499,0.756602,0.857317,0.143613173284896,0.759366290163657,0.37 (0.99),1.8e-10 (8e-07),0.001517,0.930752
DTS,1,6246295,0.608496,0.80061,-0.314153453056753,0.48438404898372,0.022 (0.81),1.1e-05 (0.011),0.001517,0.919426
DTS,2,225200515,0.986223,0.906707,1.20442368266618,0.743143485031075,0.019 (0.8),4.1e-07 (0.00074),0.000633,0.734852
DTS,2,225463382,0.605052,0.767683,0.183278052077869,0.58930320872709,0.19 (0.99),2.2e-08 (6.2e-05),0.000881,0.899823
DTS,3,161016441,0.58209,0.876829,-0.858344437065378,-0.508375108842168,7.3e-09 (0.0026),0.00028 (0.13),0.554201,0.014016
DTS,4,202429351,0.964409,0.885976,1.73524405826244,0.0293628025413876,1.9e-07 (0.014),0.86 (1),0.505618,0.002795
DTS,7,110855373,0.987371,0.95,3.68947758912961,0.0686822644906636,6.3e-10 (0.00044),0.75 (1),0.93564,0.008012
DTS,8,126761299,0.900115,0.971951,-1.03986947313172,-0.697269924871668,3.8e-07 (0.018),0.023 (0.9),0.58625,0.010275
DTS,9,128205378,0.669346,0.739024,0.188319435016505,0.551401125000459,0.21 (0.99),2.3e-06 (0.003),0.002104,0.890677
DTS,9,146679383,0.809414,0.953659,-0.732101584044735,-0.543830170226656,3.5e-06 (0.037),0.01 (0.72),0.719534,0.00346
DTS,10,94059383,0.960964,0.948171,0.0493061752574326,2.23466995569027,0.88 (1),1.3e-25 (4.2e-20),0.000954,0.991885
DTS,10,94453179,0.969001,0.932927,0.79920901301154,2.11692711741389,0.041 (0.88),9.6e-31 (2.4e-24),0.000848,1.00958
GY,7,175528863,0.792193,0.971341,-0.0502847701445315,-1.09426250116361,0.54 (0.99),2e-08 (0.013),0.036291,0.699043
